{
    "data":["S01", "RAN", "RAN", "RAN", "RAN", "RAN", "RAN", 
            "NON", "RAN", "RAN", "RAN", "RAN", "RAN", "RAN", 
            "NON", "NON", "RAN", "RAN", "RAN", "RAN", "RAN", 
            "NON", "NON", "NON", "RAN", "RAN", "RAN", "RAN", 
            "NON", "NON", "NON", "NON", "RAN", "RAN", "RAN", 
            "NON", "NON", "NON", "NON", "NON", "S02", "RAN", 
            "NON", "NON", "NON", "NON", "NON", "NON", "D01"],
    "mode": "EASY"
}	