{
    "data":["H03", "RAN", "RAN", "RAN", "RAN", "RAN", "RAN", 
            "NON", "C01", "RAN", "RAN", "RAN", "RAN", "RAN", 
            "NON", "NON", "C05", "RAN", "RAN", "RAN", "RAN", 
            "NON", "NON", "NON", "S01", "RAN", "RAN", "RAN", 
            "NON", "NON", "NON", "NON", "D09", "RAN", "RAN", 
            "NON", "NON", "NON", "NON", "NON", "RAN", "RAN", 
            "NON", "NON", "NON", "NON", "NON", "NON", "H01"],
    "mode": "EASY"
}	