{
    "data":["C02", "RAN", "RAN", "RAN", "RAN", "RAN", "RAN", 
            "NON", "RAN", "RAN", "RAN", "RAN", "RAN", "RAN", 
            "NON", "NON", "RAN", "RAN", "RAN", "RAN", "RAN", 
            "NON", "NON", "NON", "D01", "RAN", "RAN", "RAN", 
            "NON", "NON", "NON", "NON", "RAN", "RAN", "RAN", 
            "NON", "NON", "NON", "NON", "NON", "RAN", "RAN", 
            "NON", "NON", "NON", "NON", "NON", "NON", "RAN"],
    "mode": "EASY"
}	