{
    "data":["RAN", "RAN", "RAN", "RAN", "RAN", "RAN", "RAN", 
            "NON", "RAN", "RAN", "RAN", "D01", "RAN", "RAN", 
            "NON", "NON", "RAN", "RAN", "RAN", "RAN", "RAN", 
            "NON", "NON", "NON", "C01", "RAN", "RAN", "RAN", 
            "NON", "NON", "NON", "NON", "RAN", "RAN", "RAN", 
            "NON", "NON", "NON", "NON", "NON", "RAN", "RAN", 
            "NON", "NON", "NON", "NON", "NON", "NON", "H02"],
    "mode": "EASY"
}	