{
    "data":["RAN", "RAN", "RAN", "D04", "RAN", "RAN", "C01", 
            "NON", "RAN", "RAN", "RAN", "H02", "RAN", "RAN", 
            "NON", "NON", "RAN", "RAN", "RAN", "RAN", "RAN", 
            "NON", "NON", "NON", "RAN", "RAN", "RAN", "H01", 
            "NON", "NON", "NON", "NON", "RAN", "RAN", "RAN", 
            "NON", "NON", "NON", "NON", "NON", "RAN", "RAN", 
            "NON", "NON", "NON", "NON", "NON", "NON", "RAN"],
    "mode": "EASY"
}	