{
    "data":["RAN", "RAN", "RAN", "RAN", "RAN", "RAN", "RAN", 
            "NON", "RAN", "RAN", "RAN", "RAN", "RAN", "RAN", 
            "NON", "NON", "RAN", "RAN", "RAN", "RAN", "RAN", 
            "NON", "NON", "NON", "RAN", "RAN", "RAN", "RAN", 
            "NON", "NON", "NON", "NON", "RAN", "RAN", "RAN", 
            "NON", "NON", "NON", "NON", "NON", "RAN", "RAN", 
            "NON", "NON", "NON", "NON", "NON", "NON", "RAN"],
    "mode": "MEDIUM"
}	